MOVIMIENTOS ENTRE FECHAS 28/07/2015 Y 28/07/2015.
FECHA    SUC.TIP.NRO.CTA.    DENOMINACION DE LA CUENTA                          F.VALOR  COMPROB.   COD.DESCRIPCION MOVIMIENTO         IMPORTE DEBITO  IMPORTE CRED.   ORGANISMO            IDENTIFIC. PERIODO                       
     CC 021 001 00002001147 I.A.C.CUENTA PRESUPUESTO                           NO REGISTRA MOVIMIENTOS
SALDO FINAL(SEUO): 105864.79
