1412150002641500000012859000000
1412150004475000009030032010000
1412150026967500009910262000000
1412150002097000010030032010000
1412150011450500014150002070000
1412150013239500014230002070000
1412150000959500014290082000000
1412150001290500014300072000000
1412150037000000015610002070000

