1801110012263000017190023020000
1801110079000000017700002140000
1801110004379000017220032000000
1801110004486000017220022000000
1801110010533500016600121020000
1801110016016500016570173020000
1801110008385000017420022020000
1801110005901500017440022000000
1801110007139000017460012000000
