1707110002889500004130111010000
1707110002866500004130141010000
1707110002844000004130171010000
1707110057840500016700072000000
1707110002837000000019519000000
1707110002837000000019529000000
1707110000973500013040072000000
1707110000812500013040082000000
1707110013544000010860053002000
