1603140046275500013580022050000
1603140026703500013860013050000
1603140051245000000830072050000
1603140014105000013270013010000
1603140039059500009380052050000
1603140251226500014490022050000
1603140006343000006610052050000
1603140008494500008920033050000
1603140020331500000019109000000
1603140012612000014220022010000
1603140013500000015790002070000
1603140015840500014230012010000
