1704200013925000016690032000000
1704200006353000016610032000000
1704200001721500012970091000000
1704200007144500014800032000000
1704200005131000015370042000000
1704200004651000013740063000000
1704200005167500013690283000000
1704200011421000016660022000000
1704200011548000016660012000000
1704200007074000015830012000000
1704200017091000016250042000000
1704200003783500008350193010000
1704200001163000013820131000000
1704200009912500015060022000000
1704200002848500016220042000000
1704200012966000013810153000000
1704200002293000012880092000000
1704200004033000016090022013340
1704200003245500013120133000000
1704200003142500013120163000000
1704200009381500015790032000000
1704200007092000014850032000000
