1506290005730000000015399000000
1506290005730000000015409000000
1506290002727000000015919000000
1506290002717000000015929000000
1506290002707000000015939000000
1506290002353000000016349000000
1506290002696500000016459000000
1506290002686500000016469000000
1506290002676500000016479000000
