1207160001000000000001639000000
1207160002685500001630003007000
1207160003286000003140013003000
1207160001775000008040022002000
1207160011191500008840013002000
1207160001075000011160002007000
1207160001325000011180002007000
