1112060000060000000000669000000
1112060000800000000000679000000
1112060002269000001480033000000
1112060017508000001500032004000
1112060001338500003310112000000
1112060009328500005170293000000
1112060001524000005340132000000
1112060001852000007240022000000
1112060000803000007410092000000
1112060000253000008130112000000
