1507200004879500000011939000000
1507200005413000000015129000000
1507200005413000000015139000000
1507200002837000000015459000000
1507200004605500000016229000000
1507200004605500000016239000000
1507200004605500000016249000000
1507200004605500000016259000000
1507200004605500000016269000000
1507200004605500000016279000000
1507200002758500000016599000000
1507200002758500000016609000000
1507200002025000000016659000000
1507200002025000000016669000000
1507200002025000000016679000000
1507200002025000000016689000000
1507200002025000000016699000000
1507200002025000000016709000000
1507200002025000000016729000000
1507200001942000000016849000000
1507200001942000000016859000000
1507200001187000014300092000000
1507200001117500014330042000000
1507200004733000015550082000000
