1205030002190000001750012003000
1205030001307500004310352000000
1205030000266500008130122000000
1205030000265500008130132000000
1205030000264500008130142000000
1205030002214000008520112000000
1205030029344500009910012000000
