1010060001228500001850002007000
1010060001082500001980002007000
1010060001899500002610052000000
1010060002000000003640012000000
1010060001044000003690022000000
1010060000891000004630032003000
1010060001466000005700162000000
1010060001224500007660032000000
