100118                         
100118                         
100118                         
100118                         
100118                         
100118                         
100118                         
100118                         
100118                         
1001180003080000007200012007000
