1011290010312500000300142004000
1011290029052500000360062004000
1011290066711000000720022004000
1011290020419500000730032004000
1011290045421500001020022004000
1011290004857000003940022003000
1011290000323000007880012002000
1011290000305000008210012002000
