1408190004144500000010309000000
1408190005121500000010369000000
1408190001023500000011089000000
1408190001023500000011099000000
1408190000879500000011109000000
1408190019620000013650002070000
1408190001056000014290022000000
1408190001324000014300012000000
1408190008665000015340002070000
